{
  "id": null,
  "login": "adm@mobidental.com.br",
  "token": "eyJhbGciOiJIUzUxMiJ9.eyJpc3MiOiJBUFBfV0VCX0tFWSIsImp0aSI6IjEiLCJleHAiOjE1NTk3Mzc0ODV9.fyjf_vFOdhp0wwmfr3MKPBkB5uUO-xnd2y2UYYUsYyjAcICKuzl8fvxUqXCBNt4B7nNVoTNeJfw8BX7t7Xft6g",
  "isAdmin": null,
  "usuarioPerfilContaModuloSelecionado": {
    "id": 1,
    "usuarioId": 1,
    "usuarioNome": "Admin",
    "perfilContaModuloId": 4,
    "perfilContaModuloDescricao": "DENTISTA ADMINISTRADOR",
    "perfilContaModuloContaUrlImagem": "https://s3.amazonaws.com/mobidental-app/conta/1/logo_small.jpeg",
    "perfilContaModuloContaId": 1,
    "perfilContaModuloContaRazaoSocial": "Conta Mobile 1",
    "listaModuloTelaAcaoDTOSelecionado": [
      {
        "modulo": "modulo-web",
        "tela": "tel-00",
        "acao": "a-tel-00",
        "perfil": "DENTISTA ADMINISTRADOR"
      },
      {
        "modulo": "modulo-web",
        "tela": "tel-00",
        "acao": "a-tel-01",
        "perfil": "DENTISTA ADMINISTRADOR"
      },
      {
        "modulo": "modulo-web",
        "tela": "tel-00",
        "acao": "a-tel-02",
        "perfil": "DENTISTA ADMINISTRADOR"
      },
      {
        "modulo": "modulo-web",
        "tela": "tel-01",
        "acao": "a-tel-03",
        "perfil": "DENTISTA ADMINISTRADOR"
      },
      {
        "modulo": "modulo-web",
        "tela": "tel-01",
        "acao": "a-tel-05",
        "perfil": "DENTISTA ADMINISTRADOR"
      },
      {
        "modulo": "modulo-web",
        "tela": "tel-01",
        "acao": "a-tel-06",
        "perfil": "DENTISTA ADMINISTRADOR"
      },
      {
        "modulo": "modulo-web",
        "tela": "tel-02",
        "acao": "a-tel-04",
        "perfil": "DENTISTA ADMINISTRADOR"
      },
      {
        "modulo": "modulo-web",
        "tela": "tel-03",
        "acao": "a-tel-07",
        "perfil": "DENTISTA ADMINISTRADOR"
      },
      {
        "modulo": "modulo-web",
        "tela": "tel-04",
        "acao": "a-tel-08",
        "perfil": "DENTISTA ADMINISTRADOR"
      },
      {
        "modulo": "modulo-web",
        "tela": "tel-04",
        "acao": "a-tel-09",
        "perfil": "DENTISTA ADMINISTRADOR"
      },
      {
        "modulo": "modulo-web",
        "tela": "tel-05",
        "acao": "a-tel-10",
        "perfil": "DENTISTA ADMINISTRADOR"
      },
      {
        "modulo": "modulo-web",
        "tela": "tel-05",
        "acao": "a-tel-11",
        "perfil": "DENTISTA ADMINISTRADOR"
      }
    ]
  }
}
