{
  "id": 3,
  "codigoProntuario": "J0",
  "letraProntuario": null,
  "numeroProntuario": null,
  "pessoaId": 3,
  "pessoaContaId": 1,
  "pessoaNome": "João da Silva",
  "pessoaSexo": "MASCULINO",
  "pessoaEstadoCivil": "SOLTEIRO",
  "pessoaDataNascimento": "23/03/2017",
  "pessoaCpfCnpj": "999.999.999-99",
  "pessoaRgIe": "0001122",
  "pessoaEmissorRgIe": "ssp-ce",
  "pessoaCelular": "(62)85645-6552",
  "pessoaTelefone": "(62)3247-7845",
  "profissionalId": null,
  "pessoaObservacao": null,
  "pessoaEmail": "aaaaaa@gmail.com",
  "pessoaTelefoneRecado": "(85)9999-9999",
  "emIndicacao": "FACEBOOK",
  "convenioId": 1,
  "convenioNome": "PARTICULAR",
  "isTitularConvenio": true,
  "numeroCarteirinha": "1234",
  "vencimentoCarterinha": "13/09/2019",
  "nomeTitularDoConvenio": "João da Silva",
  "pessoaNomeResponsavel": "teste resp",
  "pessoaDataNascimentoResponsavel": "12/12/2018",
  "pessoaCelularResponsavel": "(55)5-5555-5555",
  "pessoaCpfResponsavel": "999.999.999-99",
  "pessoaRgResponsavel": null,
  "pessoaCep": "60541-658",
  "pessoaEndereco": "Rua Primeiro de Maio",
  "pessoaNumeroEndereco": "600",
  "pessoaBairro": "Bonsucesso",
  "pessoaCidade": "Fortaleza",
  "pessoaUfCidade": "CE",
  "urlImagemPerfil": null
}
