{
  "totalElements": 6,
  "totalPages": 1,
  "size": 10,
  "content": [
    {
      "id": 1,
      "nome": "Ana Maria",
      "codigoProntuario": "A0",
      "letraProntuario": null,
      "numeroProntuario": null,
      "pessoaNome": "Ana Maria",
      "pessoaTelefone": "(62)3247-6552",
      "pessoaCelular": "(62)99995-6552",
      "convenioNome": null,
      "isTitularConvenio": "true",
      "vencimentoCarterinha": null
    },
    {
      "id": 3,
      "nome": null,
      "codigoProntuario": "J0",
      "letraProntuario": null,
      "numeroProntuario": null,
      "pessoaNome": "João da Silva",
      "pessoaTelefone": "(62)3247-7845",
      "pessoaCelular": "(62)85645-6552",
      "convenioNome": null,
      "isTitularConvenio": null,
      "vencimentoCarterinha": null
    },
    {
      "id": 6,
      "nome": null,
      "codigoProntuario": "L0",
      "letraProntuario": null,
      "numeroProntuario": null,
      "pessoaNome": "Lucia da Silva",
      "pessoaTelefone": "(62)3092-8514",
      "pessoaCelular": "(62)99995-6552",
      "convenioNome": null,
      "isTitularConvenio": null,
      "vencimentoCarterinha": null
    },
    {
      "id": 4,
      "nome": null,
      "codigoProntuario": "M0",
      "letraProntuario": null,
      "numeroProntuario": null,
      "pessoaNome": "Marcos Miranda",
      "pessoaTelefone": "(62)3247-6552",
      "pessoaCelular": "(62)53242-6552",
      "convenioNome": null,
      "isTitularConvenio": null,
      "vencimentoCarterinha": null
    },
    {
      "id": 2,
      "nome": null,
      "codigoProntuario": "M0",
      "letraProntuario": null,
      "numeroProntuario": null,
      "pessoaNome": "Maria José",
      "pessoaTelefone": "(62)3245-6552",
      "pessoaCelular": "(62)88544-6552",
      "convenioNome": null,
      "isTitularConvenio": null,
      "vencimentoCarterinha": null
    },
    {
      "id": 5,
      "nome": null,
      "codigoProntuario": "S0",
      "letraProntuario": null,
      "numeroProntuario": null,
      "pessoaNome": "Silvia Nunes",
      "pessoaTelefone": "(62)9854-6552",
      "pessoaCelular": "(62)84542-6552",
      "convenioNome": null,
      "isTitularConvenio": null,
      "vencimentoCarterinha": null
    }
  ]
}
