{
  "id": null,
  "convenioId": 1,
  "dataAbertura": "13/06/2019",
  "dataAprovacao": null,
  "descricao": "Tratamento Odontológico",
  "formaDeRecebimento": "CARTAO_CREDITO",
  "formaPagamento": "A_PRAZO",
  "numeroTotalParcelas": 2,
  "operadorVendedorId": 2,
  "pacienteId": 3,
  "profissionalId": 1,
  "statusTratamento": "AGUARDANDO_APROVACAO",
  "tipoDesconto": "PORCENTAGEM",
  "valor": 1200.0,
  "valorDesconto": "0.00",
  "valorComDesconto": 800.0,
  "valorPercentualDesconto": 0,
  "servicos": [
    {
      "id": null,
      "tratamentoId": null,
      "isFaceDistal": false,
      "isFaceLingualPalatina": false,
      "isFaceMesial": false,
      "isFaceOclusalIncisal": false,
      "isFaceVestibular": false,
      "profissionalId": 1,
      "convenioEspecialidadeProcedimentoId": 116,
      "valor": 400.0,
      "statusTratamentoServico": "REALIZAR",
      "emDente": "DENTE_15"
    },

    {
      "id": null,
      "tratamentoId": null,
      "isFaceDistal": true,
      "isFaceLingualPalatina": false,
      "isFaceMesial": false,
      "isFaceOclusalIncisal": false,
      "isFaceVestibular": true,
      "profissionalId": 1,
      "convenioEspecialidadeProcedimentoId": 116,
      "valor": 400.0,
      "statusTratamentoServico": "REALIZAR",
      "emDente": "DENTE_16"
    },

    {
      "id": null,
      "tratamentoId": null,
      "isFaceDistal": false,
      "isFaceLingualPalatina": false,
      "isFaceMesial": false,
      "isFaceOclusalIncisal": false,
      "isFaceVestibular": false,
      "profissionalId": 1,
      "convenioEspecialidadeProcedimentoId": 117,
      "valor": 400.0,
      "statusTratamentoServico": "NAO_AUTORIZADO",
      "emDente": "DENTE_11"
    }
  ],
  "parcelas": [
    {
      "id": null,
      "descricao": "Tratamento Odontológico",
      "dataEmissao": "13/06/2019",
      "dataVencimento": "11/07/2019",
      "formaDeRecebimento": "CARTAO_CREDITO",
      "numeroParcela": 1,
      "tratamentoId": null,
      "valor": 600,
      "usuarioId": null,
      "juros": 0
    },

    {
      "id": null,
      "descricao": "Tratamento Odontológico",
      "dataEmissao": "13/06/2019",
      "dataVencimento": "11/07/2019",
      "formaDeRecebimento": "CARTAO_CREDITO",
      "numeroParcela": 2,
      "tratamentoId": null,
      "valor": 600,
      "usuarioId": null,
      "juros": 0
    }
  ]
}
